"AddonInfo"
{
  "TeamCount" "2"
  "maps"      "dota"
  "IsPlayable"  "1"
  "dota2overflow"
  {
          "MaxPlayers"                    "10"
  }
//  "desert_duo"
//  {
//          "MaxPlayers"                    "10"
//  }
//  "forest_solo"
//  {
//          "MaxPlayers"                    "10"
//  }
  "Default_Keys"
    {
        "01"
        {
            "Key"       "RETURN"
            "Command"   "CustomChatInput"
            "Name"      "Open Chat"
        }
    }
}
