  // Dota Units File
"DOTAUnits"
{
  "Version" "1"

  "npc_dummy_unit"
  {
    // General
    //
    "BaseClass"         "npc_dota_base_additive"  // Class of entity of link to.
    "Model"           "models/development/invisiblebox.vmdl"  // Model.
    "SoundSet"          "Creep_Good_Range"          // Name of sound set.
    "Level"           "0"
    "UnitLabel"         "healing_ward"

    // Abilities
    //----------------------------------------------------------------

    "Ability1"          "dummy_unit"     // Ability 1.
    "Ability2"          ""      // Ability 2.
    "Ability3"          ""      // Ability 3.
    "Ability4"          ""      // Ability 4.
    "Ability5"          ""      // Ability 5.
    "Ability6"          ""      // Ability 6 - Extra.
    "Ability7"          ""      // Ability 7 - Extra.
    "Ability8"          ""      // Ability 8 - Extra.

    // Armor
    //----------------------------------------------------------------
    "ArmorPhysical"       "0"     // Physical protection.
    "MagicalResistance"       "0"     // Magical protection.

    // Attack
    //----------------------------------------------------------------
    "AttackCapabilities"    "DOTA_UNIT_CAP_NO_ATTACK"     // Type of attack - melee, ranged, etc.
    "AttackDamageMin"     "0"     // Damage range min.
    "AttackDamageMax"     "0"     // Damage range max.
    "AttackDamageType"      "DAMAGE_TYPE_PHYSICAL"
    "AttackRate"        "1"     // Speed of attack.
    "AttackAnimationPoint"    "0.5"   // Normalized time in animation cycle to attack.
    "AttackAcquisitionRange"  "800"   // Range within a target can be acquired.
    "AttackRange"       "500"   // Range within a target can be attacked.
    "ProjectileModel"     "" // Particle system model for projectile.
    "ProjectileSpeed"     "900"   // Speed of projectile.

    // Attributes
    //----------------------------------------------------------------
    "AttributePrimary"      "DOTA_ATTRIBUTE_STRENGTH"
    "AttributeBaseStrength"   "0"     // Base strength
    "AttributeStrengthGain"   "0"     // Strength bonus per level.
    "AttributeBaseIntelligence" "0"     // Base intelligence
    "AttributeIntelligenceGain" "0"     // Intelligence bonus per level.
    "AttributeBaseAgility"    "0"     // Base agility
    "AttributeAgilityGain"    "0"     // Agility bonus per level.

    // Bounty
    //----------------------------------------------------------------
    "BountyXP"          "0"     // Experience earn.
    "BountyGoldMin"       "0"     // Gold earned min.
    "BountyGoldMax"       "0"     // Gold earned max.

    // Bounds
    //----------------------------------------------------------------
    "BoundsHullName"      "DOTA_HULL_SIZE_SMALL"      // Hull type used for navigation/locomotion.

    // Movement
    //----------------------------------------------------------------
    "MovementCapabilities"    "DOTA_UNIT_CAP_MOVE_GROUND"     // Type of locomotion - ground, air
    "MovementSpeed"       "450"   // Speed
    "MovementTurnRate"      "1.0"   // Turning rate.
    "FollowRange"       "250"   // Distance to keep when following

    // Status
    //----------------------------------------------------------------
    "StatusHealth"        "1"     // Base health.
    "StatusHealthRegen"     "0"     // Health regeneration rate.
    "StatusMana"        "0"     // Base mana.
    "StatusManaRegen"     "0"     // Mana regeneration rate.

    // Team
    //----------------------------------------------------------------
    "TeamName"          "DOTA_TEAM_GOODGUYS"      // Team name.
    "CombatClassAttack"     "DOTA_COMBAT_CLASS_ATTACK_PIERCE"
    "CombatClassDefend"     "DOTA_COMBAT_CLASS_DEFEND_SOFT"
    "UnitRelationshipClass"   "DOTA_NPC_UNIT_RELATIONSHIP_TYPE_WARD"

    // Vision
    //----------------------------------------------------------------
    "VisionDaytimeRange"    "0"   // Range of vision during day light.
    "VisionNighttimeRange"    "0"   // Range of vision at night time.

    // Bots
    //----------------------------------------------------------------
    "AttackDesire"        "1.5"   // How much bots want to attack them vs other non-hero things
  }
	"npc_multicast"
	{
		// General
		//----------------------------------------------------------------
		//"Model"						"models/creeps/neutral_creeps/n_creep_golem_a/neutral_creep_golem_a.mdl"	// Model.
		"BaseClass"					"npc_dota_creep_neutral"
		"SoundSet"					"n_creep_Melee"
		"Level"						"5"
		"IsAncient"					"1"
		"ModelScale" 					"1"
		"IsNeutralUnitType"			"1"

		// Abilities
		//----------------------------------------------------------------
		"Ability1"					"mult_dummy_unit"

		// Attack
		//----------------------------------------------------------------
		"AttackCapabilities"		"DOTA_UNIT_CAP_NO_ATTACK"

		// Movement
		//----------------------------------------------------------------
		"MovementCapabilities"		"DOTA_UNIT_CAP_MOVE_FLY"
		"MovementSpeed"				"500"

		// Status
		//----------------------------------------------------------------
		"StatusHealth"				"800"		// Base health.
		"StatusHealthRegen"			"0.5"		// Health regeneration rate.
		"StatusMana"				"5000"		// Base mana.
		"StatusManaRegen"			"50"		// Mana regeneration rate.

		// Vision
		//----------------------------------------------------------------
		"VisionDaytimeRange"		"0"		// Range of vision during day light.
		"VisionNighttimeRange"		"0"		// Range of vision at night time.

		// Bounds
		//----------------------------------------------------------------
		"BoundsHullName"			"DOTA_HULL_SIZE_SMALL"
		"RingRadius"				"0"
		"HealthBarOffset"			"10000"
	}


	///SUICIDE

  "npc_suicide_unit"
  {
    // General
    //
    "BaseClass"         "npc_dota_creep_neutral"  // Class of entity of link to.
    "Model"           "models/items/invoker/forge_spirit/sempiternal_revelations_forged_spirits/sempiternal_revelations_forged_spirits.vmdl"  // Model.
    "SoundSet"          "Creep_Good_Range"          // Name of sound set.
    "Level"           "0"
    "UnitLabel"         "healing_ward"

    // Abilities
    //----------------------------------------------------------------

    "Ability1"          ""     // Ability 1.
    "Ability2"          ""      // Ability 2.
    "Ability3"          ""      // Ability 3.
    "Ability4"          ""      // Ability 4.
    "Ability5"          ""      // Ability 5.
    "Ability6"          ""      // Ability 6 - Extra.
    "Ability7"          ""      // Ability 7 - Extra.
    "Ability8"          ""      // Ability 8 - Extra.

    // Armor
    //----------------------------------------------------------------
    "ArmorPhysical"       "0"     // Physical protection.
    "MagicalResistance"       "0"     // Magical protection.

    // Attack
    //----------------------------------------------------------------
    "AttackCapabilities"    "DOTA_UNIT_CAP_MELEE_ATTACK"     // Type of attack - melee, ranged, etc.
    "AttackDamageMin"     "1"     // Damage range min.
    "AttackDamageMax"     "1"     // Damage range max.
    "AttackDamageType"      "DAMAGE_TYPE_PHYSICAL"
    "AttackRate"        "1"     // Speed of attack.
    "AttackAnimationPoint"    "0.5"   // Normalized time in animation cycle to attack.
    "AttackAcquisitionRange"  "1000"   // Range within a target can be acquired.
    "AttackRange"       "50"   // Range within a target can be attacked.
    "ProjectileModel"     "" // Particle system model for projectile.
    "ProjectileSpeed"     "900"   // Speed of projectile.

    // Bounty
    //----------------------------------------------------------------
    "BountyXP"          "0"     // Experience earn.
    "BountyGoldMin"       "0"     // Gold earned min.
    "BountyGoldMax"       "0"     // Gold earned max.

    // Bounds
    //----------------------------------------------------------------
    "BoundsHullName"      "DOTA_HULL_SIZE_SMALL"      // Hull type used for navigation/locomotion.

    // Movement
    //----------------------------------------------------------------
    "MovementCapabilities"    "DOTA_UNIT_CAP_MOVE_GROUND"     // Type of locomotion - ground, air
    "MovementSpeed"       "380"   // Speed
    "MovementTurnRate"      "1.0"   // Turning rate.
    "FollowRange"       "100"   // Distance to keep when following

    // Status
    //----------------------------------------------------------------
    "StatusHealth"        "50"     // Base health.
    "StatusHealthRegen"     "0"     // Health regeneration rate.
    "StatusMana"        "0"     // Base mana.
    "StatusManaRegen"     "0"     // Mana regeneration rate.

    // Team
    //----------------------------------------------------------------
    "TeamName"          "DOTA_TEAM_GOODGUYS"      // Team name.
    "CombatClassAttack"     "DOTA_COMBAT_CLASS_ATTACK_PIERCE"
    "CombatClassDefend"     "DOTA_COMBAT_CLASS_DEFEND_SOFT"
    "UnitRelationshipClass"   "DOTA_NPC_UNIT_RELATIONSHIP_TYPE_WARD"

    // Vision
    //----------------------------------------------------------------
    "VisionDaytimeRange"    "300"   // Range of vision during day light.
    "VisionNighttimeRange"    "250"   // Range of vision at night time.

    // Bots
    //----------------------------------------------------------------
    "AttackDesire"        "2.0"   // How much bots want to attack them vs other non-hero things
  }
  "npc_game_ball"
  {
    // General
    //
    "BaseClass"         "npc_dota_creep_neutral"  // Class of entity of link to.
    "Model"           "models/creeps/greevil_shopkeeper/greevil_shopkeeper.vmdl"  // Model.
		"ModelScale" 					"1"
    "SoundSet"          "Creep_Good_Range"          // Name of sound set.
    "Level"           "0"
    "UnitLabel"         "healing_ward"

    // Abilities
    //----------------------------------------------------------------

    "Ability1"          ""     // Ability 1.
    "Ability2"          ""      // Ability 2.
    "Ability3"          ""      // Ability 3.
    "Ability4"          ""      // Ability 4.
    "Ability5"          ""      // Ability 5.
    "Ability6"          ""      // Ability 6 - Extra.
    "Ability7"          ""      // Ability 7 - Extra.
    "Ability8"          ""      // Ability 8 - Extra.

    // Armor
    //----------------------------------------------------------------
    "ArmorPhysical"       "200"     // Physical protection.
    "MagicalResistance"       "100"     // Magical protection.

    // Attack
    //----------------------------------------------------------------
    "AttackCapabilities"    "DOTA_UNIT_CAP_NO_ATTACK"     // Type of attack - melee, ranged, etc.
    "AttackDamageMin"     "1"     // Damage range min.
    "AttackDamageMax"     "1"     // Damage range max.
    "AttackDamageType"      "DAMAGE_TYPE_PHYSICAL"
    "AttackRate"        "1"     // Speed of attack.
    "AttackAnimationPoint"    "0.5"   // Normalized time in animation cycle to attack.
    "AttackAcquisitionRange"  "1000"   // Range within a target can be acquired.
    "AttackRange"       "50"   // Range within a target can be attacked.
    "ProjectileModel"     "" // Particle system model for projectile.
    "ProjectileSpeed"     "900"   // Speed of projectile.

    // Bounty
    //----------------------------------------------------------------
    "BountyXP"          "0"     // Experience earn.
    "BountyGoldMin"       "0"     // Gold earned min.
    "BountyGoldMax"       "0"     // Gold earned max.

    // Bounds
    //----------------------------------------------------------------
    "BoundsHullName"      "DOTA_HULL_SIZE_SMALL"      // Hull type used for navigation/locomotion.

    // Movement
    //----------------------------------------------------------------
    "MovementCapabilities"    "DOTA_UNIT_CAP_MOVE_NONE"     // Type of locomotion - ground, air
    "MovementSpeed"       "0"   // Speed
    "MovementTurnRate"      "1.0"   // Turning rate.
    "FollowRange"       "100"   // Distance to keep when following

    // Status
    //----------------------------------------------------------------
    "StatusHealth"        "10000"     // Base health.
    "StatusHealthRegen"     "1000.0"     // Health regeneration rate.
    "StatusMana"        "0"     // Base mana.
    "StatusManaRegen"     "0"     // Mana regeneration rate.

    // Team
    //----------------------------------------------------------------
    "TeamName"          "DOTA_TEAM_NEUTRALS"      // Team name.
    "CombatClassAttack"     "DOTA_COMBAT_CLASS_ATTACK_PIERCE"
    "CombatClassDefend"     "DOTA_COMBAT_CLASS_DEFEND_SOFT"
    "UnitRelationshipClass"   "DOTA_NPC_UNIT_RELATIONSHIP_TYPE_WARD"

    // Vision
    //----------------------------------------------------------------
    "VisionDaytimeRange"    "300"   // Range of vision during day light.
    "VisionNighttimeRange"    "250"   // Range of vision at night time.

    // Bots
    //----------------------------------------------------------------
    "AttackDesire"        "2.0"   // How much bots want to attack them vs other non-hero things
  }

	///Necro Master

  "npc_necro_master_unit_1"
  {
    // General
    //
    "BaseClass"         "npc_dota_creep_neutral"  // Class of entity of link to.
    "Model"           "models/items/undying/idol_of_ruination/ruin_wight_minion.vmdl"  // Model.
    "SoundSet"          "Creep_Good_Range"          // Name of sound set.
    "Level"           "3"

    // Abilities
    //----------------------------------------------------------------

    "Ability1"          ""     // Ability 1.
    "Ability2"          ""      // Ability 2.
    "Ability3"          ""      // Ability 3.
    "Ability4"          ""      // Ability 4.
    "Ability5"          ""      // Ability 5.
    "Ability6"          ""      // Ability 6 - Extra.
    "Ability7"          ""      // Ability 7 - Extra.
    "Ability8"          ""      // Ability 8 - Extra.

    // Armor
    //----------------------------------------------------------------
    "ArmorPhysical"       "4"     // Physical protection.
    "MagicalResistance"       "50"     // Magical protection.

    // Attack
    //----------------------------------------------------------------
    "AttackCapabilities"    "DOTA_UNIT_CAP_MELEE_ATTACK"     // Type of attack - melee, ranged, etc.
    "AttackDamageMin"     "15"     // Damage range min.
    "AttackDamageMax"     "40"     // Damage range max.
    "AttackDamageType"      "DAMAGE_TYPE_PHYSICAL"
    "AttackRate"        "1"     // Speed of attack.
    "AttackAnimationPoint"    "0.5"   // Normalized time in animation cycle to attack.
    "AttackAcquisitionRange"  "1000"   // Range within a target can be acquired.
    "AttackRange"       "150"   // Range within a target can be attacked.
    "ProjectileModel"     "" // Particle system model for projectile.
    "ProjectileSpeed"     "900"   // Speed of projectile.

    // Bounty
    //----------------------------------------------------------------
    "BountyXP"          "0"     // Experience earn.
    "BountyGoldMin"       "3"     // Gold earned min.
    "BountyGoldMax"       "7"     // Gold earned max.

    // Bounds
    //----------------------------------------------------------------
    "BoundsHullName"      "DOTA_HULL_SIZE_SMALL"      // Hull type used for navigation/locomotion.

    // Movement
    //----------------------------------------------------------------
    "MovementCapabilities"    "DOTA_UNIT_CAP_MOVE_GROUND"     // Type of locomotion - ground, air
    "MovementSpeed"       "380"   // Speed
    "MovementTurnRate"      "1.0"   // Turning rate.
    "FollowRange"       "100"   // Distance to keep when following

    // Status
    //----------------------------------------------------------------
    "StatusHealth"        "550"     // Base health.
    "StatusHealthRegen"     "0"     // Health regeneration rate.
    "StatusMana"        "0"     // Base mana.
    "StatusManaRegen"     "0"     // Mana regeneration rate.

    // Team
    //----------------------------------------------------------------
    "TeamName"          "DOTA_TEAM_GOODGUYS"      // Team name.
    "CombatClassAttack"     "DOTA_COMBAT_CLASS_ATTACK_PIERCE"
    "CombatClassDefend"     "DOTA_COMBAT_CLASS_DEFEND_SOFT"
    "UnitRelationshipClass"   "DOTA_NPC_UNIT_RELATIONSHIP_TYPE_DEFAULT"

    // Vision
    //----------------------------------------------------------------
    "VisionDaytimeRange"    "300"   // Range of vision during day light.
    "VisionNighttimeRange"    "550"   // Range of vision at night time.

    // Bots
    //----------------------------------------------------------------
    "AttackDesire"        "0.7"   // How much bots want to attack them vs other non-hero things
  }
  "npc_necro_master_unit_2"
  {
    // General
    //
    "BaseClass"         "npc_dota_creep_neutral"  // Class of entity of link to.
    "Model"           "models/items/undying/idol_of_ruination/ruin_wight_minion_gold.vmdl"  // Model.
    "SoundSet"          "Creep_Good_Range"          // Name of sound set.
    "Level"           "3"

    // Abilities
    //----------------------------------------------------------------

    "Ability1"          ""     // Ability 1.
    "Ability2"          ""      // Ability 2.
    "Ability3"          ""      // Ability 3.
    "Ability4"          ""      // Ability 4.
    "Ability5"          ""      // Ability 5.
    "Ability6"          ""      // Ability 6 - Extra.
    "Ability7"          ""      // Ability 7 - Extra.
    "Ability8"          ""      // Ability 8 - Extra.

    // Armor
    //----------------------------------------------------------------
    "ArmorPhysical"       "5"     // Physical protection.
    "MagicalResistance"       "80"     // Magical protection.

    // Attack
    //----------------------------------------------------------------
    "AttackCapabilities"    "DOTA_UNIT_CAP_MELEE_ATTACK"     // Type of attack - melee, ranged, etc.
    "AttackDamageMin"     "15"     // Damage range min.
    "AttackDamageMax"     "40"     // Damage range max.
    "AttackDamageType"      "DAMAGE_TYPE_PHYSICAL"
    "AttackRate"        "1"     // Speed of attack.
    "AttackAnimationPoint"    "0.5"   // Normalized time in animation cycle to attack.
    "AttackAcquisitionRange"  "1000"   // Range within a target can be acquired.
    "AttackRange"       "150"   // Range within a target can be attacked.
    "ProjectileModel"     "" // Particle system model for projectile.
    "ProjectileSpeed"     "900"   // Speed of projectile.

    // Bounty
    //----------------------------------------------------------------
    "BountyXP"          "0"     // Experience earn.
    "BountyGoldMin"       "3"     // Gold earned min.
    "BountyGoldMax"       "7"     // Gold earned max.

    // Bounds
    //----------------------------------------------------------------
    "BoundsHullName"      "DOTA_HULL_SIZE_SMALL"      // Hull type used for navigation/locomotion.

    // Movement
    //----------------------------------------------------------------
    "MovementCapabilities"    "DOTA_UNIT_CAP_MOVE_GROUND"     // Type of locomotion - ground, air
    "MovementSpeed"       "380"   // Speed
    "MovementTurnRate"      "1.0"   // Turning rate.
    "FollowRange"       "100"   // Distance to keep when following

    // Status
    //----------------------------------------------------------------
    "StatusHealth"        "550"     // Base health.
    "StatusHealthRegen"     "0"     // Health regeneration rate.
    "StatusMana"        "0"     // Base mana.
    "StatusManaRegen"     "0"     // Mana regeneration rate.

    // Team
    //----------------------------------------------------------------
    "TeamName"          "DOTA_TEAM_GOODGUYS"      // Team name.
    "CombatClassAttack"     "DOTA_COMBAT_CLASS_ATTACK_PIERCE"
    "CombatClassDefend"     "DOTA_COMBAT_CLASS_DEFEND_SOFT"
    "UnitRelationshipClass"   "DOTA_NPC_UNIT_RELATIONSHIP_TYPE_DEFAULT"

    // Vision
    //----------------------------------------------------------------
    "VisionDaytimeRange"    "300"   // Range of vision during day light.
    "VisionNighttimeRange"    "550"   // Range of vision at night time.

    // Bots
    //----------------------------------------------------------------
    "AttackDesire"        "0.7"   // How much bots want to attack them vs other non-hero things
  }
}
